<svg xmlns="http://www.w3.org/2000/svg" width="1534.269" height="1576.741" viewBox="0 0 1534.269 1576.741">
  <path id="pattern-left" d="M980.406,1208.693,664.08,978.869s59.013-214.609,122.2-267.321,197.692-106.194,225.773-211.617S940.723,244.172,884.561,194.975s-73.713-24.6-136.9-147.592-164.978,21.085-38.612,119.48,164.978-24.6,242.2-35.141-136.9,126.508-150.937,263.558S951.254,574.5,951.254,627.21s-222.646,245.92-380.6,231.864S308.894,693.978,0,799.4" transform="matrix(-0.809, 0.588, -0.588, -0.809, 1533.837, 978.276)" fill="none" stroke="#fff" stroke-miterlimit="10" stroke-width="1" opacity="0.26"/>
</svg>
