<svg id="business-stats" xmlns="http://www.w3.org/2000/svg" width="27.195" height="25.025" viewBox="0 0 27.195 25.025">
  <path id="Path" d="M26.472,23.578H1.447V.723A.723.723,0,0,0,0,.723V24.3a.723.723,0,0,0,.723.723H26.472a.723.723,0,1,0,0-1.447Z"/>
  <path id="Path-2" data-name="Path" d="M.072.179h22.89a.082.082,0,0,0,.072-.089A.082.082,0,0,0,22.963,0H.072A.082.082,0,0,0,0,.089.082.082,0,0,0,.072.179Z" transform="translate(2.08 21.707)"/>
  <path id="Shape" d="M6.84,16.3a.356.356,0,0,1-.156-.036l-4-1.913H.072a.072.072,0,0,1,0-.145H2.388l-.032-.014a.362.362,0,1,1,.313-.652l1.392.667h3.46l2.693-4.195H9a.61.61,0,0,1-.948,0H3.7L3.064,11.3a.614.614,0,1,1-1.1-.544l.37-.75H.072a.072.072,0,0,1,0-.145H2.4L4.474,5.667H.072a.072.072,0,1,1,0-.144H4.546l.79-1.6a.614.614,0,0,1,1.1,0l.778,1.6H9.876l2.083-4.195H.072a.072.072,0,0,1,0-.145H12.031L12.45.341a.615.615,0,0,1,1.1.006l.4.836h9a.072.072,0,0,1,0,.145H14.027l1.716,3.549L17.818,2.2a.612.612,0,0,1,.48-.238h.019a.614.614,0,0,1,.489.259l2.218,3.134a.6.6,0,0,1,.085.173h1.854a.072.072,0,1,1,0,.144H21.135a.614.614,0,0,1-.612.653.616.616,0,0,1-.5-.259l-.279-.394H16.687l-.579.748a.613.613,0,0,1-.55.235.609.609,0,0,1-.49-.344l-.309-.639H11.176L9.093,9.862h1.215l.074-.114a.362.362,0,0,1,.257-.164l.046,0a.362.362,0,0,1,.244.094l.208.187h6.257l.679-.57a.363.363,0,0,1,.426-.029l.949.6h3.516a.072.072,0,0,1,0,.145H19.676l1.04.655a.362.362,0,0,1-.386.612l-1.994-1.258-3.963,3.326a.361.361,0,0,1-.475-.009L10.76,10.5,8.382,14.2H22.963a.072.072,0,0,1,0,.145H8.289L7.145,16.13A.362.362,0,0,1,6.84,16.3ZM4.364,14.347h0L6.709,15.47l.721-1.123Zm6.932-4.34,2.852,2.579,3.073-2.579Zm-5.45-4.34h0L3.775,9.862H7.963L5.92,5.667Zm1.443,0L8.534,8.225,9.8,5.667ZM18.282,3.605,16.8,5.523H19.64ZM12.992,2.012h0L11.248,5.523H14.69l-1.7-3.512Z" transform="translate(2.08 3.165)"/>
</svg>
