<svg xmlns="http://www.w3.org/2000/svg" width="9" height="13" viewBox="0 0 9 13">
  <g id="field-icon" transform="translate(-0.875)" opacity="0.289">
    <circle id="Oval" cx="1.5" cy="1.5" r="1.5" transform="translate(0.875)" fill="#071c2e"/>
    <circle id="Oval_Copy_4" data-name="Oval Copy 4" cx="1.5" cy="1.5" r="1.5" transform="translate(6.875)" fill="#071c2e"/>
    <circle id="Oval_Copy_2" data-name="Oval Copy 2" cx="1.5" cy="1.5" r="1.5" transform="translate(0.875 5)" fill="#071c2e"/>
    <circle id="Oval_Copy_5" data-name="Oval Copy 5" cx="1.5" cy="1.5" r="1.5" transform="translate(6.875 5)" fill="#071c2e"/>
    <circle id="Oval_Copy_3" data-name="Oval Copy 3" cx="1.5" cy="1.5" r="1.5" transform="translate(0.875 10)" fill="#071c2e"/>
    <circle id="Oval_Copy_6" data-name="Oval Copy 6" cx="1.5" cy="1.5" r="1.5" transform="translate(6.875 10)" fill="#071c2e"/>
  </g>
</svg>
